https://api.flickr.com/services/rest/?method=flickr.photos.search&format=json&api_key=0677de6a559772c8cb27dd22219dfa0c&tags=durham,%20nc&accuracy=1&sort=relevance&extras=url_l


jsonFlickrApi({"photos":{"page":1,"pages":19279,"perpage":100,"total":"1927808","photo":[{"id":"33829094312","owner":"9144561@N03","secret":"066618bdce","server":"2941","farm":3,"title":"Chapel Drive, Duke University","ispublic":1,"isfriend":0,"isfamily":0,"url_l":"https:\/\/farm3.staticflickr.com\/2941\/33829094312_066618bdce_b.jpg","height_l":"505","width_l":"1024"},{"id":"33726558031","owner":"127657078@N06","secret":"2d0dbd9af9","server":"2845","farm":3,"title":"Downtown Raleigh, NC","ispublic":1,"isfriend":0,"isfamily":0,"url_l":"https:\/\/farm3.staticflickr.com\/2845\/33726558031_2d0dbd9af9_b.jpg","height_l":"576","width_l":"1024"},{"id":"33210622140","owner":"9144561@N03","secret":"598fe523ac","server":"2828","farm":3,"title":"Spring, Duke Chapel","ispublic":1,"isfriend":0,"isfamily":0,"url_l":"https:\/\/farm3.staticflickr.com\/2828\/33210622140_598fe523ac_b.jpg","height_l":"1024","width_l":"774"},{"id":"33245737142","owner":"20619095@N04","secret":"324c80a0dc","server":"2921","farm":3,"title":"Eno Riv+1_8218_TMW","ispublic":1,"isfriend":0,"isfamily":0,"url_l":"https:\/\/farm3.staticflickr.com\/2921\/33245737142_324c80a0dc_b.jpg","height_l":"461","width_l":"692"},{"id":"33154239215","owner":"96326056@N06","secret":"01b2cde03c","server":"766","farm":1,"title":"Crowe Lobby","ispublic":1,"isfriend":0,"isfamily":0,"url_l":"https:\/\/farm1.staticflickr.com\/766\/33154239215_01b2cde03c_b.jpg","height_l":"684","width_l":"1024"},{"id":"33149135795","owner":"9144561@N03","secret":"9b0540217a","server":"750","farm":1,"title":"Duke University Chapel","ispublic":1,"isfriend":0,"isfamily":0,"url_l":"https:\/\/farm1.staticflickr.com\/750\/33149135795_9b0540217a_b.jpg","height_l":"1024","width_l":"856"},{"id":"32722259161","owner":"96326056@N06","secret":"efbe92f220","server":"2499","farm":3,"title":"Wedgie's","ispublic":1,"isfriend":0,"isfamily":0,"url_l":"https:\/\/farm3.staticflickr.com\/2499\/32722259161_efbe92f220_b.jpg","height_l":"731","width_l":"1000"},{"id":"32690127341","owner":"90736812@N03","secret":"b89a4ce580","server":"3685","farm":4,"title":"Purple Blur","ispublic":1,"isfriend":0,"isfamily":0,"url_l":"https:\/\/farm4.staticflickr.com\/3685\/32690127341_b89a4ce580_b.jpg","height_l":"683","width_l":"1024"},{"id":"32053525831","owner":"29711429@N02","secret":"032e1ec6ca","server":"775","farm":1,"title":"January Sunset","ispublic":1,"isfriend":0,"isfamily":0,"url_l":"https:\/\/farm1.staticflickr.com\/775\/32053525831_032e1ec6ca_b.jpg","height_l":"684","width_l":"1024"},{"id":"31244847064","owner":"96326056@N06","secret":"c658d2248b","server":"326","farm":1,"title":"The Bullpen - Exterior Sign","ispublic":1,"isfriend":0,"isfamily":0,"url_l":"https:\/\/farm1.staticflickr.com\/326\/31244847064_c658d2248b_b.jpg","height_l":"672","width_l":"1024"},{"id":"31107383614","owner":"96326056@N06","secret":"4665270aff","server":"361","farm":1,"title":"Wings & Waffle Fries","ispublic":1,"isfriend":0,"isfamily":0,"url_l":"https:\/\/farm1.staticflickr.com\/361\/31107383614_4665270aff_b.jpg","height_l":"697","width_l":"1024"},{"id":"31830911775","owner":"96326056@N06","secret":"45a9958902","server":"561","farm":1,"title":"Lighted Water Tower","ispublic":1,"isfriend":0,"isfamily":0,"url_l":"https:\/\/farm1.staticflickr.com\/561\/31830911775_45a9958902_b.jpg","height_l":"1024","width_l":"593"},{"id":"31445555231","owner":"20619095@N04","secret":"2b03a883bd","server":"361","farm":1,"title":"Eno Riv+1_8241_TCW","ispublic":1,"isfriend":0,"isfamily":0,"url_l":"https:\/\/farm1.staticflickr.com\/361\/31445555231_2b03a883bd_b.jpg","height_l":"461","width_l":"692"},{"id":"30675053414","owner":"96326056@N06","secret":"a00065328d","server":"5572","farm":6,"title":"Elevate Dancer - Holiday Show","ispublic":1,"isfriend":0,"isfamily":0,"url_l":"https:\/\/farm6.staticflickr.com\/5572\/30675053414_a00065328d_b.jpg","height_l":"729","width_l":"1024"},{"id":"31323210755","owner":"96326056@N06","secret":"4ede581d04","server":"5560","farm":6,"title":"Splash","ispublic":1,"isfriend":0,"isfamily":0,"url_l":"https:\/\/farm6.staticflickr.com\/5560\/31323210755_4ede581d04_b.jpg","height_l":"719","width_l":"1024"},{"id":"30483257254","owner":"96326056@N06","secret":"9012a2768b","server":"5609","farm":6,"title":"Once a Bridge","ispublic":1,"isfriend":0,"isfamily":0,"url_l":"https:\/\/farm6.staticflickr.com\/5609\/30483257254_9012a2768b_b.jpg","height_l":"688","width_l":"1024"},{"id":"31280984655","owner":"9144561@N03","secret":"b505e6efc9","server":"5562","farm":6,"title":"Duke Chapel","ispublic":1,"isfriend":0,"isfamily":0,"url_l":"https:\/\/farm6.staticflickr.com\/5562\/31280984655_b505e6efc9_b.jpg","height_l":"1024","width_l":"829"},{"id":"30557330080","owner":"124887053@N08","secret":"f4c41392bc","server":"5574","farm":6,"title":"Kickboxing","ispublic":1,"isfriend":0,"isfamily":0,"url_l":"https:\/\/farm6.staticflickr.com\/5574\/30557330080_f4c41392bc_b.jpg","height_l":"684","width_l":"1024"},{"id":"30185240814","owner":"20619095@N04","secret":"60d8a4c852","server":"5799","farm":6,"title":"Eno Riv+1_8232_TCW","ispublic":1,"isfriend":0,"isfamily":0,"url_l":"https:\/\/farm6.staticflickr.com\/5799\/30185240814_60d8a4c852_b.jpg","height_l":"461","width_l":"692"},{"id":"30606318745","owner":"97368537@N00","secret":"6310b4d4db","server":"5787","farm":6,"title":"Ballpark in Twilight","ispublic":1,"isfriend":0,"isfamily":0,"url_l":"https:\/\/farm6.staticflickr.com\/5787\/30606318745_6310b4d4db_b.jpg","height_l":"663","width_l":"1000"},{"id":"30288226340","owner":"97368537@N00","secret":"2c1875ac0d","server":"8566","farm":9,"title":"The Night Photographer","ispublic":1,"isfriend":0,"isfamily":0,"url_l":"https:\/\/farm9.staticflickr.com\/8566\/30288226340_2c1875ac0d_b.jpg","height_l":"668","width_l":"1000"},{"id":"30472413705","owner":"97368537@N00","secret":"21e73b4fbc","server":"5457","farm":6,"title":"Twilight Skyline in Durham","ispublic":1,"isfriend":0,"isfamily":0,"url_l":"https:\/\/farm6.staticflickr.com\/5457\/30472413705_21e73b4fbc_b.jpg","height_l":"504","width_l":"1000"},{"id":"30140145435","owner":"97368537@N00","secret":"a7989f5695","server":"8549","farm":9,"title":"Center for Documentary Studies at Duke University","ispublic":1,"isfriend":0,"isfamily":0,"url_l":"https:\/\/farm9.staticflickr.com\/8549\/30140145435_a7989f5695_b.jpg","height_l":"702","width_l":"1024"},{"id":"29897735446","owner":"9144561@N03","secret":"2ac8d63397","server":"8228","farm":9,"title":"Duke Chapel Postlude","ispublic":1,"isfriend":0,"isfamily":0,"url_l":"https:\/\/farm9.staticflickr.com\/8228\/29897735446_2ac8d63397_b.jpg","height_l":"718","width_l":"1024"},{"id":"29882233745","owner":"96326056@N06","secret":"9a8ba4b3e5","server":"8605","farm":9,"title":"South Parking Deck","ispublic":1,"isfriend":0,"isfamily":0,"url_l":"https:\/\/farm9.staticflickr.com\/8605\/29882233745_9a8ba4b3e5_b.jpg","height_l":"730","width_l":"1024"},{"id":"29507216380","owner":"96326056@N06","secret":"b1bcd2e42a","server":"8250","farm":9,"title":"South Carolina Broadcasters","ispublic":1,"isfriend":0,"isfamily":0,"url_l":"https:\/\/farm9.staticflickr.com\/8250\/29507216380_b1bcd2e42a_b.jpg","height_l":"712","width_l":"1024"},{"id":"29494053302","owner":"64596573@N00","secret":"1c538580f4","server":"8366","farm":9,"title":"Mati\u00e1s 1st soccer game (2)","ispublic":1,"isfriend":0,"isfamily":0,"url_l":"https:\/\/farm9.staticflickr.com\/8366\/29494053302_1c538580f4_b.jpg","height_l":"1024","width_l":"681"},{"id":"29213737940","owner":"20619095@N04","secret":"c28068eb39","server":"8368","farm":9,"title":"EnoRiv+1_7848_fusw2","ispublic":1,"isfriend":0,"isfamily":0,"url_l":"https:\/\/farm9.staticflickr.com\/8368\/29213737940_c28068eb39_b.jpg","height_l":"475","width_l":"713"},{"id":"28854140512","owner":"96326056@N06","secret":"351ac75b26","server":"8571","farm":9,"title":"Music on the Lawn 8\/11\/16","ispublic":1,"isfriend":0,"isfamily":0,"url_l":"https:\/\/farm9.staticflickr.com\/8571\/28854140512_351ac75b26_b.jpg","height_l":"696","width_l":"1024"},{"id":"28798057666","owner":"96326056@N06","secret":"a6a1feb90f","server":"8724","farm":9,"title":"Power Plant & The River","ispublic":1,"isfriend":0,"isfamily":0,"url_l":"https:\/\/farm9.staticflickr.com\/8724\/28798057666_a6a1feb90f_b.jpg","height_l":"684","width_l":"1024"},{"id":"28664610992","owner":"64770191@N08","secret":"fb8e3c1134","server":"8538","farm":9,"title":"Local brew","ispublic":1,"isfriend":0,"isfamily":0,"url_l":"https:\/\/farm9.staticflickr.com\/8538\/28664610992_fb8e3c1134_b.jpg","height_l":"1024","width_l":"769"},{"id":"28457739576","owner":"64596573@N00","secret":"4056a938c2","server":"8607","farm":9,"title":"NC - OH family (7)","ispublic":1,"isfriend":0,"isfamily":0,"url_l":"https:\/\/farm9.staticflickr.com\/8607\/28457739576_4056a938c2_b.jpg","height_l":"681","width_l":"1024"},{"id":"28194579816","owner":"20619095@N04","secret":"c894a9fda7","server":"8682","farm":9,"title":"Eno Riv+1_8224_TCW","ispublic":1,"isfriend":0,"isfamily":0,"url_l":"https:\/\/farm9.staticflickr.com\/8682\/28194579816_c894a9fda7_b.jpg","height_l":"461","width_l":"692"},{"id":"26976781613","owner":"96326056@N06","secret":"8ee64fc2f6","server":"7759","farm":8,"title":"Bark in the Park #2681","ispublic":1,"isfriend":0,"isfamily":0,"url_l":"https:\/\/farm8.staticflickr.com\/7759\/26976781613_8ee64fc2f6_b.jpg","height_l":"537","width_l":"1024"},{"id":"27379247252","owner":"96326056@N06","secret":"822659b43a","server":"7352","farm":8,"title":"American Tobacco #2319","ispublic":1,"isfriend":0,"isfamily":0,"url_l":"https:\/\/farm8.staticflickr.com\/7352\/27379247252_822659b43a_b.jpg","height_l":"684","width_l":"1024"},{"id":"26566671343","owner":"10768955@N00","secret":"4616530e5d","server":"7645","farm":8,"title":"Duke Chapel","ispublic":1,"isfriend":0,"isfamily":0,"url_l":"https:\/\/farm8.staticflickr.com\/7645\/26566671343_4616530e5d_b.jpg","height_l":"683","width_l":"1024"},{"id":"26392648693","owner":"96326056@N06","secret":"6f58355443","server":"7231","farm":8,"title":"American Tobacco at Dusk","ispublic":1,"isfriend":0,"isfamily":0,"url_l":"https:\/\/farm8.staticflickr.com\/7231\/26392648693_6f58355443_b.jpg","height_l":"684","width_l":"1024"},{"id":"26538645320","owner":"53005133@N02","secret":"9120595674","server":"7255","farm":8,"title":"","ispublic":1,"isfriend":0,"isfamily":0,"url_l":"https:\/\/farm8.staticflickr.com\/7255\/26538645320_9120595674_b.jpg","height_l":"832","width_l":"1024"},{"id":"26776003656","owner":"89786188@N02","secret":"f50fd7dd6c","server":"7474","farm":8,"title":"Frog on Picnic Table","ispublic":1,"isfriend":0,"isfamily":0,"url_l":"https:\/\/farm8.staticflickr.com\/7474\/26776003656_f50fd7dd6c_b.jpg","height_l":"683","width_l":"1024"},{"id":"26465429796","owner":"20619095@N04","secret":"95681dc102","server":"1606","farm":2,"title":"EnoRiv+1_7885_TCW","ispublic":1,"isfriend":0,"isfamily":0,"url_l":"https:\/\/farm2.staticflickr.com\/1606\/26465429796_95681dc102_b.jpg","height_l":"461","width_l":"699"},{"id":"25288566093","owner":"20619095@N04","secret":"502494be8d","server":"1478","farm":2,"title":"EnoRiv+1_7469_TCW","ispublic":1,"isfriend":0,"isfamily":0,"url_l":"https:\/\/farm2.staticflickr.com\/1478\/25288566093_502494be8d_b.jpg","height_l":"461","width_l":"692"},{"id":"25701573752","owner":"64770191@N08","secret":"df8637e035","server":"1599","farm":2,"title":"City in the evening","ispublic":1,"isfriend":0,"isfamily":0,"url_l":"https:\/\/farm2.staticflickr.com\/1599\/25701573752_df8637e035_b.jpg","height_l":"768","width_l":"1024"},{"id":"24795174513","owner":"20619095@N04","secret":"fe53c3a47d","server":"1550","farm":2,"title":"EnoRiv+1_7881_TCW","ispublic":1,"isfriend":0,"isfamily":0,"url_l":"https:\/\/farm2.staticflickr.com\/1550\/24795174513_fe53c3a47d_b.jpg","height_l":"461","width_l":"692"},{"id":"25088024601","owner":"20619095@N04","secret":"14c17346eb","server":"1506","farm":2,"title":"EnoRiv+1_7552_TCW","ispublic":1,"isfriend":0,"isfamily":0,"url_l":"https:\/\/farm2.staticflickr.com\/1506\/25088024601_14c17346eb_b.jpg","height_l":"461","width_l":"686"},{"id":"25003251021","owner":"64770191@N08","secret":"8e1782681e","server":"1712","farm":2,"title":"The walk","ispublic":1,"isfriend":0,"isfamily":0,"url_l":"https:\/\/farm2.staticflickr.com\/1712\/25003251021_8e1782681e_b.jpg","height_l":"1024","width_l":"769"},{"id":"24289481409","owner":"89786188@N02","secret":"c236e294ae","server":"1687","farm":2,"title":"Durham Lights","ispublic":1,"isfriend":0,"isfamily":0,"url_l":"https:\/\/farm2.staticflickr.com\/1687\/24289481409_c236e294ae_b.jpg","height_l":"576","width_l":"1024"},{"id":"23591577434","owner":"20619095@N04","secret":"51ffdfa331","server":"1545","farm":2,"title":"EnoRiv+1_7889_TCW","ispublic":1,"isfriend":0,"isfamily":0,"url_l":"https:\/\/farm2.staticflickr.com\/1545\/23591577434_51ffdfa331_b.jpg","height_l":"461","width_l":"692"},{"id":"23368948142","owner":"53005133@N02","secret":"8781862076","server":"5749","farm":6,"title":"","ispublic":1,"isfriend":0,"isfamily":0,"url_l":"https:\/\/farm6.staticflickr.com\/5749\/23368948142_8781862076_b.jpg","height_l":"923","width_l":"1024"},{"id":"23394737341","owner":"53005133@N02","secret":"079bc8a553","server":"5639","farm":6,"title":"","ispublic":1,"isfriend":0,"isfamily":0,"url_l":"https:\/\/farm6.staticflickr.com\/5639\/23394737341_079bc8a553_b.jpg","height_l":"784","width_l":"1024"},{"id":"22849507003","owner":"53005133@N02","secret":"7741be9f66","server":"699","farm":1,"title":"","ispublic":1,"isfriend":0,"isfamily":0,"url_l":"https:\/\/farm1.staticflickr.com\/699\/22849507003_7741be9f66_b.jpg","height_l":"947","width_l":"1024"},{"id":"22759596541","owner":"131246275@N07","secret":"534d0b7a34","server":"694","farm":1,"title":"Peaceful Tones","ispublic":1,"isfriend":0,"isfamily":0,"url_l":"https:\/\/farm1.staticflickr.com\/694\/22759596541_534d0b7a34_b.jpg","height_l":"576","width_l":"1024"},{"id":"21949829768","owner":"131246275@N07","secret":"c60f00ca12","server":"5733","farm":6,"title":"See me","ispublic":1,"isfriend":0,"isfamily":0,"url_l":"https:\/\/farm6.staticflickr.com\/5733\/21949829768_c60f00ca12_b.jpg","height_l":"819","width_l":"1024"},{"id":"22070911915","owner":"131246275@N07","secret":"6ebaabce25","server":"582","farm":1,"title":"Benched","ispublic":1,"isfriend":0,"isfamily":0,"url_l":"https:\/\/farm1.staticflickr.com\/582\/22070911915_6ebaabce25_b.jpg","height_l":"384","width_l":"1024"},{"id":"21816251670","owner":"64770191@N08","secret":"8118851a24","server":"713","farm":1,"title":"Oktoberfest","ispublic":1,"isfriend":0,"isfamily":0,"url_l":"https:\/\/farm1.staticflickr.com\/713\/21816251670_8118851a24_b.jpg","height_l":"1024","width_l":"768"},{"id":"21731881170","owner":"64770191@N08","secret":"21f3e987c9","server":"5753","farm":6,"title":"Oktoberfest","ispublic":1,"isfriend":0,"isfamily":0,"url_l":"https:\/\/farm6.staticflickr.com\/5753\/21731881170_21f3e987c9_b.jpg","height_l":"768","width_l":"1024"},{"id":"21688357005","owner":"89786188@N02","secret":"26b3e78d87","server":"697","farm":1,"title":"Road Sweeper Bristles","ispublic":1,"isfriend":0,"isfamily":0,"url_l":"https:\/\/farm1.staticflickr.com\/697\/21688357005_26b3e78d87_b.jpg","height_l":"1024","width_l":"768"},{"id":"21061275568","owner":"89786188@N02","secret":"7a5e7dee67","server":"636","farm":1,"title":"Survivor","ispublic":1,"isfriend":0,"isfamily":0,"url_l":"https:\/\/farm1.staticflickr.com\/636\/21061275568_7a5e7dee67_b.jpg","height_l":"682","width_l":"1024"},{"id":"21200066975","owner":"36509286@N03","secret":"7c79cc62a4","server":"593","farm":1,"title":"Imperfect Beauty","ispublic":1,"isfriend":0,"isfamily":0,"url_l":"https:\/\/farm1.staticflickr.com\/593\/21200066975_7c79cc62a4_b.jpg","height_l":"683","width_l":"1024"},{"id":"20547286914","owner":"89786188@N02","secret":"8d2814e54a","server":"753","farm":1,"title":"Purple Irises","ispublic":1,"isfriend":0,"isfamily":0,"url_l":"https:\/\/farm1.staticflickr.com\/753\/20547286914_8d2814e54a_b.jpg","height_l":"682","width_l":"1024"},{"id":"20547286284","owner":"89786188@N02","secret":"62ba5b1a4c","server":"5716","farm":6,"title":"Tiger Lily","ispublic":1,"isfriend":0,"isfamily":0,"url_l":"https:\/\/farm6.staticflickr.com\/5716\/20547286284_62ba5b1a4c_b.jpg","height_l":"682","width_l":"1024"},{"id":"20548492183","owner":"89786188@N02","secret":"f0aaf25955","server":"581","farm":1,"title":"IMG_2308","ispublic":1,"isfriend":0,"isfamily":0,"url_l":"https:\/\/farm1.staticflickr.com\/581\/20548492183_f0aaf25955_b.jpg","height_l":"682","width_l":"1024"},{"id":"21169620575","owner":"89786188@N02","secret":"29052cc589","server":"682","farm":1,"title":"","ispublic":1,"isfriend":0,"isfamily":0,"url_l":"https:\/\/farm1.staticflickr.com\/682\/21169620575_29052cc589_b.jpg","height_l":"682","width_l":"1024"},{"id":"20518753954","owner":"89786188@N02","secret":"95e0dae891","server":"704","farm":1,"title":"Plantlife Floating in Pond","ispublic":1,"isfriend":0,"isfamily":0,"url_l":"https:\/\/farm1.staticflickr.com\/704\/20518753954_95e0dae891_b.jpg","height_l":"682","width_l":"1024"},{"id":"20923286950","owner":"34525698@N00","secret":"a6e62c1e99","server":"5742","farm":6,"title":"WHEN A HOUSE IS NOT A HOME","ispublic":1,"isfriend":0,"isfamily":0,"url_l":"https:\/\/farm6.staticflickr.com\/5742\/20923286950_a6e62c1e99_b.jpg","height_l":"683","width_l":"1024"},{"id":"20171513193","owner":"20619095@N04","secret":"723e465fa7","server":"5708","farm":6,"title":"EnoRiv+1_7861_TCW","ispublic":1,"isfriend":0,"isfamily":0,"url_l":"https:\/\/farm6.staticflickr.com\/5708\/20171513193_723e465fa7_b.jpg","height_l":"461","width_l":"692"},{"id":"20358105656","owner":"36832117@N07","secret":"bcb4b4c615","server":"3797","farm":4,"title":"Crystal4","ispublic":1,"isfriend":0,"isfamily":0,"url_l":"https:\/\/farm4.staticflickr.com\/3797\/20358105656_bcb4b4c615_b.jpg","height_l":"512","width_l":"1024"},{"id":"19639665466","owner":"89786188@N02","secret":"9a9b6d59ce","server":"3736","farm":4,"title":"Tiger Lily from Below","ispublic":1,"isfriend":0,"isfamily":0,"url_l":"https:\/\/farm4.staticflickr.com\/3736\/19639665466_9a9b6d59ce_b.jpg","height_l":"682","width_l":"1024"},{"id":"19044927403","owner":"89786188@N02","secret":"515a7fa25f","server":"3812","farm":4,"title":"Purple Coneflower","ispublic":1,"isfriend":0,"isfamily":0,"url_l":"https:\/\/farm4.staticflickr.com\/3812\/19044927403_515a7fa25f_b.jpg","height_l":"682","width_l":"1024"},{"id":"19611362196","owner":"20619095@N04","secret":"5db8ca8c22","server":"347","farm":1,"title":"EnoRiv+1_7305_TCW2","ispublic":1,"isfriend":0,"isfamily":0,"url_l":"https:\/\/farm1.staticflickr.com\/347\/19611362196_5db8ca8c22_b.jpg","height_l":"461","width_l":"692"},{"id":"19366165099","owner":"36509286@N03","secret":"41c065eae6","server":"432","farm":1,"title":"Catsburg Country Store","ispublic":1,"isfriend":0,"isfamily":0,"url_l":"https:\/\/farm1.staticflickr.com\/432\/19366165099_41c065eae6_b.jpg","height_l":"660","width_l":"1024"},{"id":"19453717611","owner":"64770191@N08","secret":"0f7424fcf6","server":"345","farm":1,"title":"Urban sunflower","ispublic":1,"isfriend":0,"isfamily":0,"url_l":"https:\/\/farm1.staticflickr.com\/345\/19453717611_0f7424fcf6_b.jpg","height_l":"1024","width_l":"683"},{"id":"19223002110","owner":"20619095@N04","secret":"a40a705ea2","server":"3916","farm":4,"title":"EnoRiv+1_7054TMW","ispublic":1,"isfriend":0,"isfamily":0,"url_l":"https:\/\/farm4.staticflickr.com\/3916\/19223002110_a40a705ea2_b.jpg","height_l":"461","width_l":"692"},{"id":"19218430199","owner":"36509286@N03","secret":"8556a3346f","server":"550","farm":1,"title":"The Durham Hotel","ispublic":1,"isfriend":0,"isfamily":0,"url_l":"https:\/\/farm1.staticflickr.com\/550\/19218430199_8556a3346f_b.jpg","height_l":"1024","width_l":"809"},{"id":"19031749859","owner":"36509286@N03","secret":"e020ddd7e6","server":"405","farm":1,"title":"The Quality Electric Company","ispublic":1,"isfriend":0,"isfamily":0,"url_l":"https:\/\/farm1.staticflickr.com\/405\/19031749859_e020ddd7e6_b.jpg","height_l":"732","width_l":"1024"},{"id":"19184462832","owner":"36509286@N03","secret":"1a34ea4793","server":"350","farm":1,"title":"Tree Tunnel","ispublic":1,"isfriend":0,"isfamily":0,"url_l":"https:\/\/farm1.staticflickr.com\/350\/19184462832_1a34ea4793_b.jpg","height_l":"652","width_l":"1024"},{"id":"18687728595","owner":"20619095@N04","secret":"bc8594cef9","server":"8856","farm":9,"title":"EnoRiv+1_7543_TCW","ispublic":1,"isfriend":0,"isfamily":0,"url_l":"https:\/\/farm9.staticflickr.com\/8856\/18687728595_bc8594cef9_b.jpg","height_l":"461","width_l":"692"},{"id":"18394405826","owner":"89786188@N02","secret":"c91a92aa1c","server":"484","farm":1,"title":"Yellow Lilies","ispublic":1,"isfriend":0,"isfamily":0,"url_l":"https:\/\/farm1.staticflickr.com\/484\/18394405826_c91a92aa1c_b.jpg","height_l":"682","width_l":"1024"},{"id":"18170333969","owner":"89786188@N02","secret":"82d5d24630","server":"8876","farm":9,"title":"Yellow","ispublic":1,"isfriend":0,"isfamily":0,"url_l":"https:\/\/farm9.staticflickr.com\/8876\/18170333969_82d5d24630_b.jpg","height_l":"683","width_l":"1024"},{"id":"17488110403","owner":"89786188@N02","secret":"5c56a8a03b","server":"7748","farm":8,"title":"IMG_0526","ispublic":1,"isfriend":0,"isfamily":0,"url_l":"https:\/\/farm8.staticflickr.com\/7748\/17488110403_5c56a8a03b_b.jpg","height_l":"1024","width_l":"683"},{"id":"16694661864","owner":"36509286@N03","secret":"3de491264a","server":"7735","farm":8,"title":"Church Steeples at Sunset in Durham","ispublic":1,"isfriend":0,"isfamily":0,"url_l":"https:\/\/farm8.staticflickr.com\/7735\/16694661864_3de491264a_b.jpg","height_l":"683","width_l":"1024"},{"id":"16517479244","owner":"20619095@N04","secret":"2f2e1be995","server":"8788","farm":9,"title":"EnoRiv+1_7475_TCW","ispublic":1,"isfriend":0,"isfamily":0,"url_l":"https:\/\/farm9.staticflickr.com\/8788\/16517479244_2f2e1be995_b.jpg","height_l":"461","width_l":"692"},{"id":"17115259405","owner":"89786188@N02","secret":"51c7e95acc","server":"8691","farm":9,"title":"Magnolia Blossoms","ispublic":1,"isfriend":0,"isfamily":0,"url_l":"https:\/\/farm9.staticflickr.com\/8691\/17115259405_51c7e95acc_b.jpg","height_l":"683","width_l":"1024"},{"id":"17091041301","owner":"89786188@N02","secret":"491eb3a2c5","server":"8810","farm":9,"title":"Banded Water Snake (Nerodia fasciata)","ispublic":1,"isfriend":0,"isfamily":0,"url_l":"https:\/\/farm9.staticflickr.com\/8810\/17091041301_491eb3a2c5_b.jpg","height_l":"683","width_l":"1024"},{"id":"16956806995","owner":"20619095@N04","secret":"7dec4c6ce5","server":"7626","farm":8,"title":"EnoRiv+1_7327_TMW2","ispublic":1,"isfriend":0,"isfamily":0,"url_l":"https:\/\/farm8.staticflickr.com\/7626\/16956806995_7dec4c6ce5_b.jpg","height_l":"461","width_l":"693"},{"id":"16484665580","owner":"53005133@N02","secret":"9dfdec1556","server":"8630","farm":9,"title":"","ispublic":1,"isfriend":0,"isfamily":0,"url_l":"https:\/\/farm9.staticflickr.com\/8630\/16484665580_9dfdec1556_b.jpg","height_l":"828","width_l":"1024"},{"id":"16038220173","owner":"36509286@N03","secret":"7d31481207","server":"8603","farm":9,"title":"Power Plant","ispublic":1,"isfriend":0,"isfamily":0,"url_l":"https:\/\/farm9.staticflickr.com\/8603\/16038220173_7d31481207_b.jpg","height_l":"678","width_l":"1024"},{"id":"16037079443","owner":"36509286@N03","secret":"732e93e1cf","server":"8672","farm":9,"title":"Snow Day at American Tobacco","ispublic":1,"isfriend":0,"isfamily":0,"url_l":"https:\/\/farm9.staticflickr.com\/8672\/16037079443_732e93e1cf_b.jpg","height_l":"1024","width_l":"691"},{"id":"16465809788","owner":"89786188@N02","secret":"dc9a295bab","server":"8565","farm":9,"title":"IMG_0053","ispublic":1,"isfriend":0,"isfamily":0,"url_l":"https:\/\/farm9.staticflickr.com\/8565\/16465809788_dc9a295bab_b.jpg","height_l":"683","width_l":"1024"},{"id":"16446092877","owner":"89786188@N02","secret":"e22fa3b11f","server":"8567","farm":9,"title":"Snow-Covered Trees","ispublic":1,"isfriend":0,"isfamily":0,"url_l":"https:\/\/farm9.staticflickr.com\/8567\/16446092877_e22fa3b11f_b.jpg","height_l":"1024","width_l":"683"},{"id":"16645191632","owner":"89786188@N02","secret":"d1ea463f0a","server":"8604","farm":9,"title":"Tree Along Interstate 40","ispublic":1,"isfriend":0,"isfamily":0,"url_l":"https:\/\/farm9.staticflickr.com\/8604\/16645191632_d1ea463f0a_b.jpg","height_l":"682","width_l":"1024"},{"id":"16429411567","owner":"89786188@N02","secret":"7015a1258f","server":"8659","farm":9,"title":"Snow-Covered Conifer Cones","ispublic":1,"isfriend":0,"isfamily":0,"url_l":"https:\/\/farm9.staticflickr.com\/8659\/16429411567_7015a1258f_b.jpg","height_l":"683","width_l":"1024"},{"id":"16016804263","owner":"89786188@N02","secret":"6f1be2f81c","server":"8581","farm":9,"title":"Snow-Covered Conifer Cones","ispublic":1,"isfriend":0,"isfamily":0,"url_l":"https:\/\/farm9.staticflickr.com\/8581\/16016804263_6f1be2f81c_b.jpg","height_l":"683","width_l":"1024"},{"id":"16635233051","owner":"89786188@N02","secret":"3e1c9776b1","server":"8673","farm":9,"title":"Squirrel In a Snow-Covered Tree","ispublic":1,"isfriend":0,"isfamily":0,"url_l":"https:\/\/farm9.staticflickr.com\/8673\/16635233051_3e1c9776b1_b.jpg","height_l":"683","width_l":"1024"},{"id":"15987402564","owner":"89026143@N08","secret":"75a2fac5bb","server":"8604","farm":9,"title":"coach Jeff Walz","ispublic":1,"isfriend":0,"isfamily":0,"url_l":"https:\/\/farm9.staticflickr.com\/8604\/15987402564_75a2fac5bb_b.jpg","height_l":"1000","width_l":"626"},{"id":"15717654493","owner":"31766109@N05","secret":"26d2ba4929","server":"7579","farm":8,"title":"","ispublic":1,"isfriend":0,"isfamily":0,"url_l":"https:\/\/farm8.staticflickr.com\/7579\/15717654493_26d2ba4929_b.jpg","height_l":"1024","width_l":"1024"},{"id":"16287176621","owner":"53005133@N02","secret":"7146cfb00a","server":"7528","farm":8,"title":"","ispublic":1,"isfriend":0,"isfamily":0,"url_l":"https:\/\/farm8.staticflickr.com\/7528\/16287176621_7146cfb00a_b.jpg","height_l":"805","width_l":"1024"},{"id":"15543599914","owner":"36509286@N03","secret":"fa467db95b","server":"8613","farm":9,"title":"Dolly's on Main","ispublic":1,"isfriend":0,"isfamily":0,"url_l":"https:\/\/farm9.staticflickr.com\/8613\/15543599914_fa467db95b_b.jpg","height_l":"712","width_l":"1024"},{"id":"16148488151","owner":"89786188@N02","secret":"1c5817e5ce","server":"7483","farm":8,"title":"Day 363: Nighttime Shadows (12\/29\/14)","ispublic":1,"isfriend":0,"isfamily":0,"url_l":"https:\/\/farm8.staticflickr.com\/7483\/16148488151_1c5817e5ce_b.jpg","height_l":"683","width_l":"1024"},{"id":"16143202215","owner":"51800215@N08","secret":"5e31f36344","server":"7483","farm":8,"title":"bravura (2014)","ispublic":1,"isfriend":0,"isfamily":0,"url_l":"https:\/\/farm8.staticflickr.com\/7483\/16143202215_5e31f36344_b.jpg","height_l":"683","width_l":"1024"},{"id":"15902457088","owner":"89786188@N02","secret":"44bdd1a573","server":"7577","farm":8,"title":"Day 355: Park Bench (12\/21\/14)","ispublic":1,"isfriend":0,"isfamily":0,"url_l":"https:\/\/farm8.staticflickr.com\/7577\/15902457088_44bdd1a573_b.jpg","height_l":"683","width_l":"1024"}]},"stat":"ok"})